<?xml version="1.0" encoding="UTF-8"?>
<testng-results ignored="5" total="6" passed="1" failed="0" skipped="0">
  <reporter-output>
  </reporter-output>
  <suite started-at="2018-10-11T23:04:52Z" name="JCPenney App running on Chrome Browser" finished-at="2018-10-11T23:05:24Z" duration-ms="31834">
    <groups>
    </groups>
    <test started-at="2018-10-11T23:04:52Z" name="Home Page" finished-at="2018-10-11T23:05:24Z" duration-ms="31834">
      <class name="AccountFeature">
        <test-method is-config="true" signature="setUp(boolean, java.lang.String, java.lang.String, java.lang.String, java.lang.String, java.lang.String, java.lang.String)[pri:0, instance:AccountFeature@340da44c]" started-at="2018-10-11T23:04:52Z" name="setUp" finished-at="2018-10-11T23:05:02Z" duration-ms="9531" status="PASS">
          <params>
            <param index="0">
              <value>
                <![CDATA[false]]>
              </value>
            </param>
            <param index="1">
              <value>
                <![CDATA[sanjira]]>
              </value>
            </param>
            <param index="2">
              <value>
                <![CDATA[662b4ed7-1a59-4ab2-ae8c-2dfe1e32f4aa]]>
              </value>
            </param>
            <param index="3">
              <value>
                <![CDATA[https://www.jcpenney.com/]]>
              </value>
            </param>
            <param index="4">
              <value>
                <![CDATA[windows]]>
              </value>
            </param>
            <param index="5">
              <value>
                <![CDATA[chrome]]>
              </value>
            </param>
            <param index="6">
              <value>
                <![CDATA[45.0.2454.93]]>
              </value>
            </param>
          </params>
          <reporter-output>
          </reporter-output>
        </test-method> <!-- setUp -->
        <test-method signature="testForSignIn()[pri:1, instance:AccountFeature@340da44c]" started-at="2018-10-11T23:05:02Z" name="testForSignIn" finished-at="2018-10-11T23:05:23Z" duration-ms="21349" status="PASS">
          <reporter-output>
          </reporter-output>
        </test-method> <!-- testForSignIn -->
        <test-method is-config="true" signature="cleanUp()[pri:0, instance:AccountFeature@340da44c]" started-at="2018-10-11T23:05:23Z" name="cleanUp" finished-at="2018-10-11T23:05:24Z" duration-ms="936" status="PASS">
          <reporter-output>
          </reporter-output>
        </test-method> <!-- cleanUp -->
      </class> <!-- AccountFeature -->
    </test> <!-- Home Page -->
  </suite> <!-- JCPenney App running on Chrome Browser -->
</testng-results>
